Dec  5 03:50:01 example /USR/SBIN/CRON[27466]: (www-data) CMD ([ -x /usr/lib/cgi-bin/awstats.pl -a -f /etc/awstats/awstats.conf -a -r /var/log/apache/access.log ] && /usr/lib/cgi-bin/awstats.pl -config=awstats -update >/dev/null)
Dec  5 03:50:01 example /USR/SBIN/CRON[27467]: (user) CMD (/home/user/bin/do-mailing-list-updates /srv/user.org.uk/mailboxes/mailing-list-updates/Maildir/.Processed )
Dec  5 03:50:01 example /USR/SBIN/CRON[27468]: (root) CMD ([ -x /usr/bin/firewall-blacklist ] && /usr/bin/firewall-blacklist)
Dec  5 03:50:01 example /USR/SBIN/CRON[27470]: (root) CMD ([ -x /usr/sbin/sympl-all-crontabs ] && /usr/sbin/sympl-all-crontabs)
Dec  5 03:50:01 example /USR/SBIN/CRON[27471]: (root) CMD ( [ -x /usr/sbin/sympl-monit ] &&  /usr/sbin/sympl-monit -m -d /etc/sympl/monit.d)
Dec  5 03:50:02 example dovecot: pop3-login: Aborted login (0 authentication attempts): rip=::ffff:127.0.0.1, lip=::ffff:127.0.0.1, secured
Dec  5 03:50:02 example dovecot: imap-login: Aborted login (0 authentication attempts): rip=::ffff:127.0.0.1, lip=::ffff:127.0.0.1, secured
Dec  5 03:50:02 example pure-ftpd-wrapper[27506]: connect from 127.0.0.1 (127.0.0.1)
Dec  5 03:50:02 example pure-ftpd: (?@localhost) [INFO] New connection from localhost
Dec  5 03:50:02 example pure-ftpd: (?@localhost) [INFO] Logout.
Dec  5 03:50:02 example spamd[5443]: spamd: connection from localhost [127.0.0.1] at port 59330 
Dec  5 03:50:02 example sympl-monit[27474]: 11/11 tests passed on first attempt.
Dec  5 03:50:03 example spamd[1876]: prefork: child states: II 
Dec  5 03:51:01 example /USR/SBIN/CRON[27520]: (Debian-exim) CMD ([ -x /usr/sbin/exim_rewrite_scan ] && /usr/sbin/exim_rewrite_scan  /etc/exim4/exim4.conf)
Dec  5 03:51:01 example /USR/SBIN/CRON[27521]: (root) CMD ([ -x /usr/sbin/sympl-all-crontabs ] && /usr/sbin/sympl-all-crontabs)
Dec  5 03:52:01 example /USR/SBIN/CRON[27528]: (Debian-exim) CMD ([ -x /usr/sbin/exim_rewrite_scan ] && /usr/sbin/exim_rewrite_scan  /etc/exim4/exim4.conf)
Dec  5 03:52:01 example /USR/SBIN/CRON[27529]: (root) CMD ( [ -x /usr/sbin/sympl-monit ] &&  /usr/sbin/sympl-monit -m -d /etc/sympl/monit.d)
Dec  5 03:52:01 example /USR/SBIN/CRON[27530]: (root) CMD ([ -x /usr/sbin/sympl-all-crontabs ] && /usr/sbin/sympl-all-crontabs)
Dec  5 03:52:01 example /USR/SBIN/CRON[27531]: (root) CMD ([ -x /usr/bin/firewall-blacklist ] && /usr/bin/firewall-blacklist)
Dec  5 03:52:01 example dovecot: pop3-login: Aborted login (0 authentication attempts): rip=::ffff:127.0.0.1, lip=::ffff:127.0.0.1, secured
Dec  5 03:52:01 example dovecot: imap-login: Aborted login (0 authentication attempts): rip=::ffff:127.0.0.1, lip=::ffff:127.0.0.1, secured
Dec  5 03:52:01 example pure-ftpd-wrapper[27567]: connect from 127.0.0.1 (127.0.0.1)
Dec  5 03:52:01 example pure-ftpd: (?@localhost) [INFO] New connection from localhost
Dec  5 03:52:01 example pure-ftpd: (?@localhost) [INFO] Logout.
Dec  5 03:52:01 example spamd[5443]: spamd: connection from localhost [127.0.0.1] at port 37679 
Dec  5 03:52:01 example sympl-monit[27533]: 11/11 tests passed on first attempt.
Dec  5 03:52:01 example spamd[1876]: prefork: child states: II 
Dec  5 03:53:01 example /USR/SBIN/CRON[27581]: (Debian-exim) CMD ([ -x /usr/sbin/exim_rewrite_scan ] && /usr/sbin/exim_rewrite_scan  /etc/exim4/exim4.conf)
Dec  5 03:53:01 example /USR/SBIN/CRON[27582]: (root) CMD ([ -x /usr/sbin/sympl-all-crontabs ] && /usr/sbin/sympl-all-crontabs)
Dec  5 03:54:01 example /USR/SBIN/CRON[27590]: (root) CMD ([ -x /usr/sbin/sympl-dns-generate ] && /usr/sbin/sympl-dns-generate)
